location,Lahore,Lahore,Lahore,Lahore
lat,31.58091,31.58091,31.58091,31.58091
lon,74.34599,74.34599,74.34599,74.34599
asl,206.600,206.600,206.600,206.600
variable,Temperature,Relative Humidity,Precipitation Total,Sunshine Duration
unit,°C,%,mm,min
level,2 m elevation corrected,2 m,sfc,sfc
resolution,hourly,hourly,hourly,hourly
aggregation,None,None,None,None
timestamp,Lahore Temperature [2 m elevation corrected],Lahore Relative Humidity [2 m],Lahore Precipitation Total,Lahore Sunshine Duration
20200524T0000,36.1889,12.0,0.0,0.0
20200524T0100,34.2389,14.0,0.0,0.0
20200524T0200,32.3389,15.0,0.0,0.0
20200524T0300,30.4389,18.0,0.0,0.0
20200524T0400,28.8389,20.0,0.0,0.0
20200524T0500,27.7089,23.0,0.0,0.53333336
20200524T0600,27.9089,26.0,0.0,60.0
20200524T0700,30.6689,23.0,0.0,60.0
20200524T0800,33.9989,18.0,0.0,60.0
20200524T0900,37.2989,14.0,0.0,60.0
20200524T1000,40.4489,11.0,0.0,60.0
20200524T1100,43.0989,9.0,0.0,60.0
20200524T1200,44.4989,8.0,0.0,60.0
20200524T1300,45.1689,8.0,0.0,60.0
20200524T1400,45.4489,7.0,0.0,60.0
20200524T1500,45.4789,7.0,0.0,60.0
20200524T1600,45.2689,7.0,0.0,60.0
20200524T1700,42.9489,10.0,0.0,60.0
20200524T1800,42.2789,10.0,0.0,60.0
20200524T1900,41.0289,11.0,0.0,59.483334
20200524T2000,39.8189,12.0,0.0,0.0
20200524T2100,38.9389,13.0,0.0,0.0
20200524T2200,38.0189,14.0,0.0,0.0
20200524T2300,37.1189,15.0,0.0,0.0
20200525T0000,36.1589,16.0,0.0,0.0
20200525T0100,35.2389,17.0,0.0,0.0
20200525T0200,34.2489,17.0,0.0,0.0
20200525T0300,32.9989,19.0,0.0,0.0
20200525T0400,31.6689,20.0,0.0,0.0
20200525T0500,30.5989,21.0,0.0,0.96666664
20200525T0600,30.0989,22.0,0.0,60.0
20200525T0700,31.968899,21.0,0.0,60.0
20200525T0800,35.4489,17.0,0.0,60.0
20200525T0900,39.3889,13.0,0.0,60.0
20200525T1000,42.3189,10.0,0.0,60.0
20200525T1100,43.7089,9.0,0.0,60.0
20200525T1200,44.7389,8.0,0.0,60.0
20200525T1300,45.5189,7.0,0.0,60.0
20200525T1400,45.9589,7.0,0.0,60.0
20200525T1500,46.0589,6.0,0.0,60.0
20200525T1600,45.8689,7.0,0.0,60.0
20200525T1700,44.4489,8.0,0.0,60.0
20200525T1800,43.8489,8.0,0.0,60.0
20200525T1900,42.5889,9.0,0.0,60.0
20200525T2000,41.8789,9.0,0.0,0.11666667
20200525T2100,40.6889,10.0,0.0,0.0
20200525T2200,39.4689,10.0,0.0,0.0
20200525T2300,38.1489,11.0,0.0,0.0
20200526T0000,36.7889,12.0,0.0,0.0
20200526T0100,35.5289,13.0,0.0,0.0
20200526T0200,34.2989,14.0,0.0,0.0
20200526T0300,33.0789,15.0,0.0,0.0
20200526T0400,31.9189,16.0,0.0,0.0
20200526T0500,31.4889,16.0,0.0,1.35
20200526T0600,31.2289,17.0,0.0,60.0
20200526T0700,32.3589,16.0,0.0,60.0
20200526T0800,36.3589,13.0,0.0,60.0
20200526T0900,39.8389,11.0,0.0,60.0
20200526T1000,42.6789,8.0,0.0,60.0
20200526T1100,44.5489,6.0,0.0,60.0
20200526T1200,45.5789,6.0,0.0,60.0
20200526T1300,46.4089,6.0,0.0,60.0
20200526T1400,46.8489,5.0,0.0,60.0
20200526T1500,46.9189,5.0,0.0,60.0
20200526T1600,46.7589,5.0,0.0,60.0
20200526T1700,45.0589,7.0,0.0,60.0
20200526T1800,44.3689,7.0,0.0,60.0
20200526T1900,42.9089,7.0,0.0,60.0
20200526T2000,42.1589,7.0,0.0,0.73333335
20200526T2100,41.0089,7.0,0.0,0.0
20200526T2200,39.7589,8.0,0.0,0.0
20200526T2300,38.5989,8.0,0.0,0.0
20200527T0000,37.4289,9.0,0.0,0.0
20200527T0100,36.2789,9.0,0.0,0.0
20200527T0200,34.9589,10.0,0.0,0.0
20200527T0300,33.5289,11.0,0.0,0.0
20200527T0400,31.948898,13.0,0.0,0.0
20200527T0500,31.1489,14.0,0.0,1.7333333
20200527T0600,30.0289,17.0,0.0,60.0
20200527T0700,32.0489,16.0,0.0,60.0
20200527T0800,35.2789,13.0,0.0,60.0
20200527T0900,39.1489,10.0,0.0,60.0
20200527T1000,42.3989,8.0,0.0,60.0
20200527T1100,44.8189,6.0,0.0,60.0
20200527T1200,45.9889,5.0,0.0,60.0
20200527T1300,46.6489,5.0,0.0,60.0
20200527T1400,47.0089,4.0,0.0,60.0
20200527T1500,47.0889,4.0,0.0,60.0
20200527T1600,46.8989,4.0,0.0,60.0
20200527T1700,45.0289,6.0,0.0,60.0
20200527T1800,44.2989,6.0,0.0,53.61702
20200527T1900,42.9289,7.0,0.0,60.0
20200527T2000,42.0789,7.0,0.0,1.35
20200527T2100,41.1789,8.0,0.0,0.0
20200527T2200,40.2789,8.0,0.0,0.0
20200527T2300,39.1989,9.0,0.0,0.0
20200528T0000,36.1589,11.0,0.0,0.0
20200528T0100,33.5089,14.0,0.0,0.0
20200528T0200,32.0789,16.0,0.0,0.0
20200528T0300,31.3089,16.0,0.0,0.0
20200528T0400,31.2189,16.0,0.0,0.0
20200528T0500,31.3589,16.0,0.0,0.0
20200528T0600,32.1589,16.0,0.0,0.0
20200528T0700,34.4389,14.0,0.0,0.0
20200528T0800,37.8389,12.0,0.0,1.9148934
20200528T0900,40.6189,10.0,0.0,16.595745
20200528T1000,42.5589,9.0,0.0,60.0
20200528T1100,43.0789,9.0,0.0,22.978725
20200528T1200,43.3189,8.0,0.0,19.148937
20200528T1300,43.3589,8.0,0.0,15.957448
20200528T1400,44.5389,7.0,0.0,5.7446804
20200528T1500,44.8489,7.0,0.0,14.042552
20200528T1600,44.9289,7.0,0.0,22.340425
20200528T1700,40.9489,13.0,0.6,5.1063824
20200528T1800,40.6189,14.0,0.1,0.0
20200528T1900,38.8689,17.0,0.0,0.0
20200528T2000,36.8989,20.0,0.0,0.0
20200528T2100,36.0989,20.0,0.0,0.0
20200528T2200,35.2489,21.0,0.0,0.0
20200528T2300,34.2089,23.0,0.0,0.0
20200529T0000,33.1389,25.0,0.6,0.0
20200529T0100,31.998901,27.0,0.7,0.0
20200529T0200,31.2489,28.0,0.0,0.0
20200529T0300,30.5989,30.0,0.7,0.0
20200529T0400,30.1889,31.0,0.4,0.0
20200529T0500,29.5689,33.0,1.0,0.0
20200529T0600,29.5989,33.0,1.1,0.0
20200529T0700,30.3389,32.0,1.5,0.0
20200529T0800,31.8489,31.0,1.5,0.0
20200529T0900,33.2389,29.0,1.4,0.0
20200529T1000,33.5689,30.0,1.4,0.0
20200529T1100,34.0189,32.0,1.3,0.0
20200529T1200,35.3289,31.0,0.2,0.0
20200529T1300,37.3589,29.0,0.0,0.0
20200529T1400,38.8689,26.0,0.0,49.787235
20200529T1500,39.4389,24.0,0.0,60.0
20200529T1600,39.5389,22.0,0.0,60.0
20200529T1700,37.7289,21.0,0.2,0.0
20200529T1800,37.7489,20.0,0.0,0.0
20200529T1900,37.0189,20.0,0.0,0.0
20200529T2000,36.2089,21.0,0.0,0.0
20200529T2100,35.3989,22.0,0.0,0.0
20200529T2200,34.6289,23.0,0.0,0.0
20200529T2300,33.8089,25.0,0.0,0.0
20200530T0000,33.0689,28.0,0.0,0.0
20200530T0100,32.3489,30.0,0.0,0.0
20200530T0200,31.6889,32.0,0.0,0.0
20200530T0300,30.9589,35.0,0.0,0.0
20200530T0400,29.9289,39.0,0.4,0.0
20200530T0500,29.2889,43.0,1.6,0.0
20200530T0600,29.3889,42.0,1.7,0.0
20200530T0700,30.1089,39.0,0.5,0.0
20200530T0800,31.4089,35.0,0.0,0.0
20200530T0900,32.6589,32.0,0.0,0.0
20200530T1000,33.9989,31.0,0.0,0.0
20200530T1100,37.1489,24.0,0.0,0.0
20200530T1200,37.8089,20.0,0.1,0.0
20200530T1300,39.1189,18.0,0.0,59.361702
20200530T1400,39.8389,17.0,0.0,60.0
20200530T1500,38.8689,18.0,0.0,25.531916
20200530T1600,37.9889,20.0,0.0,0.0
20200530T1700,33.5789,32.0,0.9,0.0
20200530T1800,33.3989,33.0,0.5,0.0
20200530T1900,32.9189,35.0,0.0,0.0
20200530T2000,32.6689,34.0,0.0,0.0
20200530T2100,32.4489,34.0,0.0,0.0
20200530T2200,32.2289,34.0,0.6,0.0
20200530T2300,32.0389,34.0,0.6,0.0
20200531T0000,31.7489,35.0,0.6,0.0
20200531T0100,31.3789,35.0,0.1,0.0
20200531T0200,30.7689,37.0,0.1,0.0
20200531T0300,29.8789,41.0,1.1,0.0
20200531T0400,29.2289,43.0,1.0,0.0
20200531T0500,28.3989,46.0,0.2,0.0
20200531T0600,28.6389,46.0,0.0,26.170214
20200531T0700,29.2289,45.0,0.0,21.702127
20200531T0800,29.3589,47.0,0.0,37.659573
20200531T0900,31.1089,43.0,0.0,57.89362
20200531T1000,32.4789,39.0,0.0,52.531914
20200531T1100,33.7289,35.0,0.0,54.063828
20200531T1200,34.5789,33.0,0.0,51.38298
20200531T1300,35.2689,30.0,0.0,53.61702
20200531T1400,35.4589,29.0,0.0,38.297874
20200531T1500,35.5689,28.0,0.0,0.0
20200531T1600,35.3989,28.0,0.0,0.0
20200531T1700,32.8289,34.0,0.0,24.25532
20200531T1800,32.6389,35.0,0.0,29.361702
20200531T1900,32.0189,36.0,0.0,37.02128
20200531T2000,31.5489,37.0,0.0,3.6833334
20200531T2100,31.2989,37.0,0.0,0.0
20200531T2200,30.8689,38.0,0.0,0.0
20200531T2300,30.2589,39.0,0.0,0.0
20200601T0000,29.4089,41.0,0.0,0.0
20200601T0100,28.5389,43.0,0.0,0.0
20200601T0200,27.8289,45.0,0.0,0.0
20200601T0300,27.1789,47.0,0.0,0.0
20200601T0400,26.6889,48.0,0.0,0.0
20200601T0500,26.2689,50.0,0.0,3.25
20200601T0600,26.1289,56.0,0.0,60.0
20200601T0700,28.0489,53.0,0.0,60.0
20200601T0800,29.8089,48.0,0.0,60.0
20200601T0900,31.2089,45.0,0.0,60.0
20200601T1000,32.7989,40.0,0.0,53.61702
20200601T1100,34.1789,34.0,0.0,60.0
20200601T1200,35.5189,30.0,0.0,60.0
20200601T1300,36.6189,27.0,0.0,59.361702
20200601T1400,37.0889,25.0,0.0,52.97872
20200601T1500,37.1489,23.0,0.0,45.31915
20200601T1600,37.2089,22.0,0.0,53.61702
20200601T1700,36.3889,22.0,0.3,8.93617
20200601T1800,36.0289,23.0,0.0,58.723404
20200601T1900,35.1489,25.0,0.0,60.0
20200601T2000,34.5589,26.0,0.0,4.25
20200601T2100,33.8689,28.0,0.0,0.0
20200601T2200,33.0089,30.0,0.0,0.0
20200601T2300,32.2889,31.0,0.0,0.0
20200602T0000,31.3789,33.0,0.0,0.0
20200602T0100,30.3189,36.0,0.0,0.0
20200602T0200,29.4489,38.0,0.0,0.0
20200602T0300,28.7689,39.0,0.0,0.0
20200602T0400,28.2789,41.0,0.0,0.0
20200602T0500,27.8389,42.0,0.0,3.4833333
20200602T0600,28.5089,42.0,0.0,44.04255
20200602T0700,30.0889,40.0,0.0,28.085108
20200602T0800,31.5189,38.0,0.0,30.638298
20200602T0900,32.9089,35.0,0.0,42.765953
20200602T1000,34.3989,32.0,0.0,49.787235
20200602T1100,33.7989,32.0,0.4,7.6595736
20200602T1200,33.8189,30.0,0.4,0.0
20200602T1300,34.2389,30.0,0.0,0.0
20200602T1400,34.4589,29.0,0.0,0.0
20200602T1500,35.5689,27.0,0.0,24.25532
20200602T1600,35.9789,26.0,0.0,60.0
20200602T1700,36.0489,26.0,0.0,60.0
20200602T1800,35.9289,25.0,0.0,53.61702
20200602T1900,35.1989,24.0,0.0,55.595745
20200602T2000,34.2989,25.0,0.0,4.8
20200602T2100,33.1489,28.0,0.0,0.0
20200602T2200,32.2289,30.0,0.0,0.0
20200602T2300,31.3789,32.0,0.0,0.0
20200603T0000,30.6089,34.0,0.0,0.0
20200603T0100,29.9489,36.0,0.0,0.0
20200603T0200,29.5089,37.0,0.0,0.0
20200603T0300,29.2389,37.0,0.0,0.0
20200603T0400,28.7689,37.0,0.0,0.0
20200603T0500,28.1289,38.0,0.0,3.644149
20200603T0600,28.2289,40.0,0.0,60.0
20200603T0700,30.3189,36.0,0.0,60.0
20200603T0800,32.5889,31.0,0.0,60.0
20200603T0900,34.4089,28.0,0.0,60.0
20200603T1000,35.8489,24.0,0.0,60.0
20200603T1100,36.8189,22.0,0.0,24.893618
20200603T1200,36.1389,22.0,0.4,8.297872
20200603T1300,37.0089,20.0,0.0,21.702127
20200603T1400,37.6689,19.0,0.0,60.0
20200603T1500,38.0389,19.0,0.0,38.297874
20200603T1600,38.1389,18.0,0.0,41.48936
20200603T1700,38.0089,18.0,0.0,60.0
20200603T1800,37.5089,18.0,0.0,54.255318
20200603T1900,36.5889,19.0,0.0,48.51064
20200603T2000,35.6289,21.0,0.0,5.3333335
20200603T2100,34.8189,23.0,0.0,0.0
20200603T2200,34.0289,24.0,0.0,0.0
20200603T2300,33.3089,25.0,0.0,0.0
20200604T0000,32.5589,26.0,0.0,0.0
20200604T0100,31.5189,28.0,0.0,0.0
20200604T0200,30.3889,30.0,0.0,0.0
20200604T0300,29.3789,32.0,0.0,0.0
20200604T0400,28.5189,34.0,0.0,0.0
20200604T0500,27.7389,36.0,0.0,3.2496452
20200604T0600,28.6689,35.0,0.0,59.425533
20200604T0700,31.1289,32.0,0.0,60.0
20200604T0800,33.4789,28.0,0.0,60.0
20200604T0900,35.4189,26.0,0.0,53.61702
20200604T1000,36.6489,22.0,0.0,53.61702
20200604T1100,37.1289,20.0,0.0,20.425533
20200604T1200,36.8789,20.0,0.2,13.404254
20200604T1300,38.2789,18.0,0.0,60.0
20200604T1400,38.8089,17.0,0.0,60.0
20200604T1500,38.9289,17.0,0.0,50.425533
20200604T1600,38.9389,17.0,0.0,6.382978
20200604T1700,38.7189,17.0,0.0,58.085106
20200604T1800,37.8089,18.0,0.0,58.723404
20200604T1900,36.5689,20.0,0.0,60.0
20200604T2000,35.4689,22.0,0.0,5.85
20200604T2100,34.3389,26.0,0.0,0.0
20200604T2200,33.8689,27.0,0.0,0.0
20200604T2300,33.4889,27.0,0.0,0.0
20200605T0000,32.9789,28.0,0.0,0.0
20200605T0100,32.4589,29.0,0.0,0.0
20200605T0200,31.9189,30.0,0.0,0.0
20200605T0300,31.2189,31.0,0.0,0.0
20200605T0400,29.7089,34.0,0.2,0.0
20200605T0500,28.4089,38.0,0.2,3.589362
20200605T0600,28.9789,43.0,0.0,60.0
20200605T0700,30.2689,48.0,0.0,60.0
20200605T0800,31.5789,45.0,0.0,60.0
20200605T0900,33.1689,41.0,0.0,60.0
20200605T1000,34.7489,35.0,0.0,60.0
20200605T1100,35.8389,30.0,0.0,53.61702
20200605T1200,36.7189,26.0,0.0,53.61702
20200605T1300,36.2789,25.0,0.3,5.1063824
20200605T1400,37.3189,23.0,0.0,53.61702
20200605T1500,37.7189,22.0,0.0,60.0
20200605T1600,37.8589,21.0,0.0,60.0
20200605T1700,37.7389,22.0,0.0,60.0
20200605T1800,37.0989,22.0,0.0,58.723404
20200605T1900,36.1889,23.0,0.0,60.0
20200605T2000,35.4789,24.0,0.0,4.1207447
20200605T2100,34.7589,26.0,0.0,0.0
20200605T2200,34.2289,27.0,0.0,0.0
20200605T2300,33.6889,27.0,0.0,0.0
20200606T0000,32.7989,28.0,0.0,0.0
20200606T0100,31.3889,31.0,0.0,0.0
20200606T0200,29.9589,36.0,0.0,0.0
20200606T0300,28.7789,43.0,0.0,0.0
20200606T0400,27.8189,49.0,0.0,0.0
20200606T0500,27.1189,52.0,0.0,4.04539
20200606T0600,27.8989,50.0,0.0,60.0
20200606T0700,28.9489,49.0,0.0,59.361702
20200606T0800,29.1889,49.0,0.0,12.127658
20200606T0900,28.5189,52.0,0.0,0.0
20200606T1000,29.3289,49.0,0.0,0.0
20200606T1100,30.6489,45.0,0.0,56.808514
20200606T1200,32.1389,41.0,0.0,60.0
20200606T1300,34.0189,36.0,0.0,60.0
20200606T1400,35.9889,31.0,0.0,60.0
20200606T1500,37.1489,27.0,0.0,60.0
20200606T1600,37.5089,24.0,0.0,53.61702
20200606T1700,37.5389,23.0,0.0,60.0
20200606T1800,36.3089,26.0,0.0,60.0
20200606T1900,34.7389,31.0,0.0,60.0
20200606T2000,33.2289,35.0,0.0,6.8333335
20200606T2100,31.6789,39.0,0.0,0.0
20200606T2200,30.9689,40.0,0.0,0.0
20200606T2300,30.2989,41.0,0.0,0.0
20200607T0000,29.6389,43.0,0.0,0.0
20200607T0100,28.9989,45.0,0.0,0.0
20200607T0200,28.4489,46.0,0.0,0.0
20200607T0300,27.9989,48.0,0.0,0.0
20200607T0400,27.5889,49.0,0.0,0.0
20200607T0500,27.1489,51.0,0.0,4.2166667
20200607T0600,27.9489,49.0,0.0,60.0
20200607T0700,30.2089,43.0,0.0,60.0
20200607T0800,32.8789,36.0,0.0,60.0
20200607T0900,35.0989,30.0,0.0,60.0
20200607T1000,36.9189,26.0,0.0,24.893618
20200607T1100,36.5989,26.0,0.5,3.8297868
20200607T1200,37.9189,23.0,0.2,53.61702
20200607T1300,38.8189,21.0,0.0,60.0
20200607T1400,39.4489,20.0,0.0,60.0
20200607T1500,39.8889,20.0,0.0,60.0
20200607T1600,40.1189,19.0,0.0,60.0
20200607T1700,40.0089,19.0,0.0,60.0
20200607T1800,39.5889,19.0,0.0,60.0
20200607T1900,38.7789,20.0,0.0,60.0
20200607T2000,38.2089,21.0,0.0,7.3
20200607T2100,37.5689,22.0,0.0,0.0
20200607T2200,36.9589,22.0,0.0,0.0
20200607T2300,36.3289,23.0,0.0,0.0